{
	"label": "PF2e Макросы",
	"entries": {
		"Earn Income": {
			"name": "Заработок денег"
		},
		"Perception for Selected Tokens": {
			"name": "Восприятия для выбранных токенов"
		},
		"Rest for the Night": {
			"name": "Отдых на ночь"
		},
		"Stealth for Selected Tokens": {
			"name": "Скрытность для выбранных токенов"
		},
		"Take a Breather": {
			"name": "Передохнуть"
		},
		"Toggle Compendium Browser": {
			"name": "Переключить браузер сборника"
		},
		"Travel Duration": {
			"name": "Продолжительность путешествия"
		},
		"Treat Wounds": {
			"name": "Лечение ран"
		},
		"XP": {
			"name": "XP"
		}
	}
}