{
	"lib-wrapper": {
		"settings": {
			"yes": "Да",
			"no": "Нет",
			"save": "Сохранить",
			"reload": "Перезагрузить",
			"reset": "Сбросить",

			"notify-issues-gm": {
				"name": "Уведомить Мастера о проблемах",
				"hint": "Следует ли уведомлять Мастера при обнаружении проблемы, например конфликта."
			},
			"notify-issues-player": {
				"name": "Уведомить игроков",
				"hint": "Следует ли уведомлять игроков при обнаружении проблемы, например конфликта."
			},
			"high-performance-mode": {
				"name": "Производительный режим",
				"hint": "Это отключает большинство возможностей динамического обнаружения конфликтов в обмен на производительность, что особенно актуально для слабых систем. Обратите внимание, что это значительно уменьшает вероятность обнаружения конфликтов. Таким образом, рекомендуется отключить эту функцию при установке или обновления пакетов."
			},
			"log-verbosity": {
				"name": "Подробность",
				"hint": "Подробность сообщений консоли Javascript в libWrapper.",
				"choices": {
					"never"   : "Никогда",
					"all"     : "Все",
					"trace"   : "Трассировка",
					"debug"   : "Отладка",
					"info"    : "Информация",
					"warning" : "Предупреждение",
					"error"   : "Ошибка",
					"critical": "Критические",
					"always"  : "Всегда"
				}
			},

			"menu": {
				"title": "Меню настроек libWrapper",

				"priorities": {
					"name": "Приоритеты",
					"package-inactive": "Неактивный",
					"statistics-disabled": "Примечание: Сбор статистики отключен, нет возможности отображать пакеты без приоритета.",

					"prioritized": {
						"title": "Пакеты с приоритетом",
						"hint": "Эти пакеты будут иметь приоритет по сравнению с любым пакетом, которого нет в этом списке.\nБолее высокие позиции в списке приводят к более высокому приоритету."
					},

					"unprioritized": {
						"title": "Пакеты без приоритета",
						"hint": "Эти пакеты не будут ни приоритетными, ни лишенными приоритета.\nПриоритеты среди этих пакетов определяются в порядке живой очереди.\nНовые пакеты будут по умолчанию включены в этот список."
					},

					"deprioritized": {
						"title": "Пакеты с пониженным приоритетом",
						"hint": "Эти пакеты будут иметь уменьшенный приоритет по сравнению с любым пакетом, которого нет в этом списке.\nБолее высокие позиции в списке приводят к более высокому приоритету.",
						"note": "Обратите внимание, что пакеты, которые не используют libWrapper, имеют меньший приоритет даже по сравнению с этими пакетами."
					}
				},

				"conflicts": {
					"name": "Конфликты",
					"none-detected": "Конфликты не обнаружены.",
					"statistics-disabled": "Сбор статистики отключен.",
					"show-ignored": "Показывать игнорируемые конфликты"
				},

				"active-wrappers": {
					"name": "Активные надстройки",
					"none-active": "В данный момент нет активных надстроек."
				},

				"about": {
					"name": "О программе",
					"full-name": "О libWrapper",
					"credits": "{name} {version} от {author}.",
					"credits-translation": "",

					"description": "'libWrapper' - это библиотека, которая предоставляет разработчикам пакетов простой способ изменять корневой код Foundry VTT, уменьшая при этом вероятность конфликта с другими пакетами.",
					"info": "Вы можете найти более подробную информацию об этом модуле в <a href=\"{repo_url}\">Foundry VTT package repository</a>, а также страницу проекта в <a href=\"{github_url}\">Github page</a>.",
					"support": "<b>Если у вас возникнут какие-либо проблемы</b>, самый простой способ найти поддержку - обратиться к сообществу. Крупнейшими каналами поддержки, предоставляемыми сообществом, являются:",
					"issue-tracker": "Если вы столкнулись с <b>внутренней ошибкой libWrapper</b>, или являетесь <b>разработчиком пакетов</b>, вы также можете отправить запрос в службу поддержки в <a href=\"{issues_url}\">libWrapper Github Issue Tracker</a>."
				},

				"warning-reset-priorities": "Сброс приоритетов пакетов приведет к возвращению всех пакетов к \"Неприоритетизиованным\". Это действие не может быть отменено. Вы уверены, что хотите продолжить?",
				"warning-save": "Рекомендуется перезагрузить эту страницу, чтобы применить новые приоритеты пакетов. Вы хотите перезагрузить?"
			}
		},

		"packages": {
			"unknown-title": "Неизвестно",

			"type-plus-id": "{type} {id}",
			"type-plus-title": "{type} {title}",

			"types": {
				"module": "модуль",
				"system": "система",
				"world": "скрипт мира",
				"unknown": "пакет"
			}
		},

		"error": {
			"see-js-console": "(см. консоль JS)",
			"tech-details": "== Технические подробности:",
			"community-support": "Обратитесь за поддержкой к сообществу:",
			"not-lw": "Это *не* ошибка libWrapper.",

			"external": {
				"notification": "{title}: Ошибка обнаружена в {type}.",
				"message": "Ошибка обнаружена в {type} {title}.",
				"info": "Найти информацию об этом {type} здесь: {url}",
				"report": "Сообщите об этой проблеме сюда: {url}",
				"likely-not-updated": "Вероятно, этот {type} не был обновлен для FVTT {version}."
			},

			"internal": {
				"message": "Обнаружена внутренняя ошибка.",
				"message-with-package": "Обнаружена внутренняя ошибка, связанная с {type} {title}.",
				"info": "Найти информацию о libWrapper здесь: {url}",
				"report": "Сообщите об этой проблеме сюда: {url}"
			},

			"conflict": {
				"potential": "{main} и {other} изменяют один и тот же функционал FoundryVTT и с большей вероятностью вступят в конфликт.",
				"confirmed": "Обнаружен конфликт между {main} и {other}.",
				"info": "Найти информацию об этих пакетах здесь:",
				"report": "Сообщить об этом конфликте здесь:"
			}
		},

		"support-channels": [
			{
				"title": "FoundryVTT Discord's #modules-troubleshooting channel",
				"url": "https://discord.gg/foundryvtt"
			},
			{
				"title": "FoundryVTT Reddit",
				"url": "https://www.reddit.com/r/FoundryVTT"
			}
		]
	}
}