{
	"pf2e-jb2a-macros": {
		"updateMenu": {
			"deleted": "Следующие эффекты будут УДАЛЕНЫ из предыдущей версии 'PF2e Animations'.",
			"added": "В ваши настройки Автораспознавания будут добавлены следующие эффекты.",
			"custom": "Следующие эффекты не будут добавлены, поскольку они уже существуют из неизвестного источника.",
			"customHint": "Если вам нужна версия 'PF2e Animations', удалите их из Меню Автораспознавания.",
			"updated": "Следующие эффекты из предыдущей версии 'PF2e Animations' (или из меню Automated Animations по умолчанию) будут обновлены.",
			"nothing": "Обновления не найдены.",
			"blacklisted": "Следующие эффекты занесены в черный список и будут удалены из вашего Меню Автораспознавания.",
			"warning": "Обязательно сделайте резервную копию меню автораспознавания! ЭТОТ ПРОЦЕСС НЕОБРАТИМ.",
			"debugCustom": "Следующие эффекты отсутствуют в PF2e Animations, они совершенно новые и останутся в вашем Меню Автораспознавания."
		},
		"notifications": {
			"killAnimationsOnKill": "Удалены анимации у побежденного бойца \"{name}\".",
			"unevenGrid": "Сетка в вашей сцене неровная ({grid}px). Скорее всего, это приведет к смещению положения вашей цели!",
			"gridless": "Перекрестие рекомендуется использовать только в сценах с сеткой. Сцены без сетки могут вызывать проблемы.",
			"wrongVersion": "Вам не хватает <b>{modules}</b> для полноценной работы PF2e Animations! Пожалуйста обновите перечисленные модули!",
			"noDependencies": "Вам не хватает <b>{modules}</b> для полноценной работы PF2e Animations! Пожалуйста включите указанные модули!",
			"noJB2A": "Вам нужен <a href=\"https://jb2a.com/home/content-information/#free_library\">модуль JB2A</a>, который можно использовать с модулем PF2e Animations!",
			"update": "PF2e Animations {version} загружен. Пожалуйста, проверьте, нет ли новых анимаций для добавления в ваше меню автораспознавания!",
			"noToken": "Исходный токен не найден.",
			"noDummy": "Отсутствуют фиктивные участники для вызова макросов.",
			"creatingDummy": " Создание фиктивных NPCs… ",
			"outOfRange": "Цель вне досягаемости.",
			"noPack": "По какой-то причине не удается обнаружить сборник 'pf2e-jb2a-macros.Actions'.",
			"tooManyArgs": "Слишком много аргументов для этого макроса! Следующие аргументы несовместимы: {issues}",
			"noPrem": "Чтобы использовать эту анимацию, вам нужна <a href='https://www.patreon.com/JB2A/membership'>премиальная версия модуля JB2A</a>!",
			"metaData": "Эта анимация Будет заменена при обновлении. Если вы этого не хотите, лучше всего временно изменить ее <b>анимацию</b> или <b>вариант</b> на что-то другое, либо включите режим отладки в настройках и и снова нажмите кнопку Metadata."
		},
		"macro": {
			"outOfRange": "Вне дистанции!",
			"suddenCharge": {
				"notif": "Внезапное нападение! Выберите, куда вы хотите переместиться. Щелкните правой кнопкой мыши, чтобы отменить.",
				"suddenCharge": "Внезапное нападение."
			},
			"disguise": {
				"humanoidForm": "🎭Форма гуманоида🎭",
				"illusoryDisguise": "🎭Иллюзорная маскировка🎭",
				"cast": "Сотворить!",
				"name": "Имя",
				"tokenImage": "Изображение токена",
				"tokenImageHint": "Убедитесь, что это работает на сцене, CORS весьма капризный.",
				"tokenScale": "Масштаб токена",
				"tokenScaleHint": "В случае если токен, в который вы входите, является выступающим токеном. Или меньшим чем вы!",
				"invisible": "Сделать ваш оригинальный токен невидимым?",
				"invisibleHint": "Включено по умолчанию, это скрывает токен под маскировкой. Полезно для маскировки под меньший или нисходящий токен."
			},
			"summoning": {
				"player": {
					"unique": "Фильтры установлены уникальным образом в соответствии с {unique}.",
					"dancingLights": "Выберите ваши пляшущие огоньки…",
					"sorted": "Отсортировано по уровню и в алфавитном порядке.",
					"nameArg": "Отфильтровано по названию: <b>{name}</b>.",
					"summonArg": "Отфильтровано по уровню <b>(макс. уровень {multiplier} от уровня заклинания {spellLevel})</b>.",
					"levelArg": "Отфильтровано по уровню <b>{level1} и выше, до {level2}</b>.",
					"traitsArg": "Отфильтровано по признакам: <b>{traits}</b>.",
					"hasImageArg": "Отфильтровано по тому, есть ли у существа <b>изображение</b>.",
					"uncommonArg": "Разрешен выбор <b>Необычной или более высокой редкости</b>.",
					"sourceArg": "Отфильтровано по источнику: <b>{sources}</b>.",
					"label": "Отсортировано по…?",
					"creature": "Существо",
					"nothingFound": "Ничего не найдено. Уточните параметры фильтра!",
					"amount": "Количество",
					"title": "Призвать что угодно",
					"level": "Уровень {level}"
				},
				"gm": {
					"title": "Запрос призыва от игрока",
					"unknownUser": "Неизвестный пользователь",
					"declined": "Отклонено!",
					"content": "<p>{user} запросил призыв <b>{amount} {actorName}</b>.</p><p>Был создан шаблон с указанием местоположения вызова. Если вы примете, призыв будет помещен в шаблон. Вы можете переместить шаблон, прежде чем принять его.</p><p>Отклонение запроса или закрытие этого окна приведет к удалению шаблона, и ничего не будет создано.</p>"
				}
			}
		},
		"settings": {
			"killAnimationsOnKillNotify": {
				"name": "Уведомить об удалении анимации на побежденных токенах",
				"hint": "Уведомить об удалении анимации на токенах, помеченных как побежденные в инициативе."
			},
			"killAnimationsOnKill": {
				"name": "Убрать анимации у побежденных токенов",
				"hint": "Автоматически удаляет анимации у токенов помеченных как побежденные в инициативе."
			},
			"onlyImageSummons": {
				"name": "Разрешить призыв только с изображением",
				"hint": "Разрешить призыв только тех существ, у которых есть изображение."
			},
			"allowUncommonSummons": {
				"name": "Разрешить призыв не только обычных существ",
				"hint": "Разрешить призывать Необычных, Редких или Уникальных существ игроками. Вы также можете разрешить это для отдельных заклинаний, добавив \"uncommon\" к аргументам заклинаний, либо в Меню Автораспознавания, либо в само заклинание в листе персонажа."
			},
			"disableHitAnims": {
				"name": "Отключить анимации \"При Попадании или Промахе\"",
				"hint": "Хотя вы можете удалить эти анимации из Меню Автораспознавания Automated Animations, они, скорее всего, вернутся, когда вы обновите его. Включите эту функцию, чтобы отключить эти анимации."
			},
			"randomHitAnims": {
				"name": "Анимации промахов вне цели",
				"hint": "Сделать так, чтобы анимации промаха и критического промаха появлялись в случайном месте рядом с токеном цели."
			},
			"autoAccept": {
				"name": "Автоматически принимать Эффекты",
				"hint": "Автоматически принимать Эффекты от макросов, такие как добавление Эффекта Ярости при использовании действия Ярость."
			},
			"autoUpdate": {
				"name": "Открывать Меню Обновления при обновлении модуля",
				"hint": "Автоматически открывать Меню Обновления Автораспознавания при обновлении модуля."
			},
			"smallTokenScale": {
				"name": "Масштаб маленьких токенов",
				"hint": "Определяет масштаб анимаций для Маленьких персонажей. Если вы используете настройку \"Масштабы токенов\" эта настройка отключена и принимается равной 0.8."
			},
			"debug": {
				"name": "Режим отладки",
				"hint": "Включает журналы консоли о том, что делает модуль PF2e Animations."
			},
			"tmfx": {
				"name": "Использовать эффекты Token Magic",
				"hint": "Для некоторых анимаций лучше использовать Token Magic FX вместо Sequencer. Обратите внимание, что этот параметр отображается только при установленном модуле Token Magic FX."
			},
			"autorecUpdate": {
				"name": "Обновление анимаций",
				"label": "Меню обновления"
			}
		},
		"welcomeMessage": {
			"header": "Добро пожаловать в PF2e Animations!",
			"description": "Этот модуль предоставляет пресеты анимации для системы PF2e. Эти анимации могут замедлить работу вашего компьютера, будь то из-за слабого компьютера или из-за большого количества эффектов на экране, что характерно для игр высокого уровня.<p/>Если вы не хотите видеть анимации, см. настройки модуля <b>Sequencer</b> и отключите параметр <b>\"Включить эффекты\"</b>.",
			"footer": "Вы можете смело удалить это сообщение, больше вам его не пришлют.",
			"settingsButton": "Открыть настройки"
		}
	}
}